<?xml version="1.0" encoding="UTF-8" standalone="no"?>
<!-- Generator: Adobe Illustrator 23.0.0, SVG Export Plug-In . SVG Version: 6.00 Build 0)  -->

<svg
   xmlns:dc="http://purl.org/dc/elements/1.1/"
   xmlns:cc="http://creativecommons.org/ns#"
   xmlns:rdf="http://www.w3.org/1999/02/22-rdf-syntax-ns#"
   xmlns:svg="http://www.w3.org/2000/svg"
   xmlns="http://www.w3.org/2000/svg"
   xmlns:sodipodi="http://sodipodi.sourceforge.net/DTD/sodipodi-0.dtd"
   xmlns:inkscape="http://www.inkscape.org/namespaces/inkscape"
   version="1.1"
   x="0px"
   y="0px"
   viewBox="0 0 1366 54"
   style="enable-background:new 0 0 1366 54;"
   xml:space="preserve"
   id="svg12"
   sodipodi:docname="round-bottom.svg"
   inkscape:version="0.92.3 (2405546, 2018-03-11)"><metadata
   id="metadata18"><rdf:RDF><cc:Work
       rdf:about=""><dc:format>image/svg+xml</dc:format><dc:type
         rdf:resource="http://purl.org/dc/dcmitype/StillImage" /><dc:title></dc:title></cc:Work></rdf:RDF></metadata><defs
   id="defs16" /><sodipodi:namedview
   pagecolor="#ffffff"
   bordercolor="#666666"
   borderopacity="1"
   objecttolerance="10"
   gridtolerance="10"
   guidetolerance="10"
   inkscape:pageopacity="0"
   inkscape:pageshadow="2"
   inkscape:window-width="1920"
   inkscape:window-height="1007"
   id="namedview14"
   showgrid="false"
   inkscape:zoom="0.90775988"
   inkscape:cx="202.69897"
   inkscape:cy="18.561904"
   inkscape:window-x="-9"
   inkscape:window-y="-9"
   inkscape:window-maximized="1"
   inkscape:current-layer="svg12" />
<style
   type="text/css"
   id="style2">
	.st0{fill:url(#SVGID_1_);}
	.st1{fill:url(#SVGID_2_);}
	.st2{fill:url(#SVGID_3_);}
	.st3{opacity:0.3;fill:url(#SVGID_4_);}
	.st4{opacity:0.2;fill:url(#SVGID_5_);}
	.st5{fill:#FFFFFF;}
	.st6{fill:url(#SVGID_6_);}
	.st7{fill:url(#SVGID_7_);}
	.st8{enable-background:new    ;}
	.st9{fill:#4193CF;}
	.st10{fill:#A3CC5D;}
	.st11{opacity:0.2;fill:url(#SVGID_8_);}
	.st12{opacity:0.07;fill-rule:evenodd;clip-rule:evenodd;}
	.st13{fill-rule:evenodd;clip-rule:evenodd;fill:#E8D1BA;}
	.st14{fill-rule:evenodd;clip-rule:evenodd;fill:none;stroke:#12415E;stroke-width:0.5;stroke-miterlimit:10;}
	.st15{fill:#E8D1BA;}
	.st16{fill:none;stroke:#12415E;stroke-width:0.5;stroke-linecap:round;stroke-miterlimit:10;}
	.st17{fill:#AD908A;}
	.st18{fill:none;stroke:#12415E;stroke-width:0.5;stroke-miterlimit:10;}
	.st19{fill:none;stroke:#143F5D;stroke-width:0.5;stroke-linecap:round;}
	.st20{fill:#30506B;}
	.st21{fill-rule:evenodd;clip-rule:evenodd;fill:#AD908A;}
	.st22{fill:#E5E5E5;}
	.st23{fill:#65A8D8;}
	.st24{fill-rule:evenodd;clip-rule:evenodd;fill:#30506B;}
	.st25{fill-rule:evenodd;clip-rule:evenodd;fill:#65A8D8;}
	.st26{fill-rule:evenodd;clip-rule:evenodd;fill:#4196D1;}
	.st27{fill:#F5DA7B;}
	.st28{opacity:0.08;fill-rule:evenodd;clip-rule:evenodd;fill:#30506B;}
	.st29{fill:#FFFFFF;stroke:#143F5D;stroke-width:0.5;stroke-linecap:round;stroke-linejoin:round;}
	.st30{fill:#D4E6F0;}
	.st31{fill:none;stroke:#143F5D;stroke-width:0.5;}
	.st32{fill-rule:evenodd;clip-rule:evenodd;fill:#68ADD7;}
	.st33{fill-rule:evenodd;clip-rule:evenodd;fill:#E5C7A9;}
	
		.st34{fill-rule:evenodd;clip-rule:evenodd;fill:none;stroke:#143F5D;stroke-width:0.5;stroke-linecap:round;stroke-linejoin:round;}
	.st35{fill-rule:evenodd;clip-rule:evenodd;fill:#D4E6F0;}
	.st36{fill-rule:evenodd;clip-rule:evenodd;fill:#ABD6EC;}
	.st37{fill-rule:evenodd;clip-rule:evenodd;fill:none;stroke:#143F5D;stroke-width:0.5;}
	.st38{fill-rule:evenodd;clip-rule:evenodd;fill:#83B8D3;}
	.st39{fill:#68A9CB;}
	.st40{fill:#CEE2A4;}
	.st41{fill:#B3D693;}
	.st42{opacity:0.5;fill:#83B8D3;}
	.st43{fill:#AE928B;}
	.st44{fill:#E7758D;}
	.st45{fill:#FAE4E9;}
	.st46{fill:#90B162;}
	.st47{fill:#143F5D;}
	.st48{fill:none;stroke:#143F5D;stroke-width:0.25;stroke-linecap:round;}
	.st49{fill-rule:evenodd;clip-rule:evenodd;fill:#69A8CA;}
	.st50{fill-rule:evenodd;clip-rule:evenodd;fill:#ABD5EA;}
	.st51{fill:#E8D0B9;}
	.st52{fill-rule:evenodd;clip-rule:evenodd;fill:#E8D0B9;}
	.st53{fill-rule:evenodd;clip-rule:evenodd;fill:#CEE2A3;}
	.st54{fill-rule:evenodd;clip-rule:evenodd;fill:#82B7D2;}
	.st55{opacity:0.5;fill-rule:evenodd;clip-rule:evenodd;fill:#82B7D2;}
	.st56{fill:#D3E5EF;}
	.st57{fill:#CDE1AC;}
	.st58{fill:none;stroke:#13405D;stroke-width:0.5;stroke-linecap:round;stroke-linejoin:round;stroke-miterlimit:10;}
	.st59{opacity:0.03;}
	.st60{fill:#A2C953;}
	.st61{fill:#B1D071;}
	.st62{clip-path:url(#SVGID_10_);enable-background:new    ;}
	.st63{clip-path:url(#SVGID_12_);enable-background:new    ;}
	.st64{clip-path:url(#SVGID_14_);enable-background:new    ;}
	.st65{fill:#7C8768;}
	.st66{clip-path:url(#SVGID_16_);enable-background:new    ;}
	.st67{fill:#C2DB8C;}
	.st68{fill:#CEE2A3;}
	.st69{clip-path:url(#SVGID_18_);enable-background:new    ;}
	.st70{clip-path:url(#SVGID_20_);enable-background:new    ;}
	.st71{clip-path:url(#SVGID_22_);enable-background:new    ;}
	.st72{fill:#69A8CA;}
	.st73{fill:none;stroke:#13405D;stroke-width:0.5;stroke-miterlimit:10;}
	.st74{fill:#CEE0A6;}
	.st75{fill:#13405D;}
	.st76{fill:#3D5567;stroke:#13405D;stroke-width:0.5;stroke-linejoin:round;}
	.st77{fill:#EBBC47;}
	.st78{fill:#F6D97B;}
	.st79{fill:#F4CD55;}
	.st80{fill:#E1A924;}
	.st81{fill:#FFDC81;}
	.st82{fill:#509DC4;}
	.st83{opacity:0.5;}
	.st84{opacity:0.2;fill:#D2ECF9;}
	.st85{opacity:0.2;}
	.st86{fill:#D2ECF9;}
	.st87{fill:#BCE5F8;stroke:#FFFFFF;stroke-width:0.5;stroke-linecap:round;stroke-linejoin:round;}
	.st88{fill:#3D5469;}
	.st89{fill:#68ADD7;}
	.st90{opacity:0.8;}
	.st91{fill:#BCE5F8;}
	.st92{fill:#DFBD9A;}
	.st93{opacity:0.8;fill:#FFFFFF;}
	.st94{fill:#AD8C84;}
	.st95{fill:#425367;}
	.st96{fill:#5D85AB;}
	.st97{opacity:0.8;fill:#BCE5F8;}
	.st98{fill:none;stroke:#FFFFFF;stroke-linecap:round;stroke-linejoin:round;stroke-miterlimit:10;}
	.st99{fill:url(#SVGID_23_);}
	.st100{fill:none;stroke:#133F5D;stroke-width:0.5;stroke-linecap:round;stroke-linejoin:round;stroke-miterlimit:10;}
	.st101{fill:#1B5A80;stroke:#10405D;stroke-width:0.5;stroke-miterlimit:10;}
	.st102{fill:#1B5A80;}
	.st103{fill:#1A5477;}
	.st104{fill:none;stroke:#10405D;stroke-width:0.5;stroke-miterlimit:10;}
	.st105{fill:#CBCDCC;stroke:#10405D;stroke-width:0.5;stroke-miterlimit:10;}
	.st106{fill:#10415E;stroke:#10405D;stroke-width:0.5;stroke-miterlimit:10;}
	.st107{fill:#10415E;stroke:#10405D;stroke-width:0.5;stroke-linecap:round;stroke-miterlimit:10;}
	.st108{fill:#E7D1BC;stroke:#133F5D;stroke-width:0.5;stroke-linecap:round;stroke-linejoin:round;stroke-miterlimit:10;}
	.st109{fill:#E5CEBA;stroke:#10405D;stroke-width:0.5;stroke-linecap:round;stroke-linejoin:round;stroke-miterlimit:10;}
	.st110{opacity:0.1;fill:#133F5D;}
	.st111{fill:#453C36;stroke:#10405D;stroke-width:0.5;stroke-linecap:round;stroke-linejoin:round;stroke-miterlimit:10;}
	.st112{fill:#E6CFBB;}
	.st113{fill:#DEBFA3;}
	.st114{fill:none;stroke:#10405D;stroke-width:0.5;stroke-linecap:round;stroke-linejoin:round;stroke-miterlimit:10;}
	.st115{fill:#2F506B;}
	.st116{fill:#28435A;}
	.st117{fill:#ACD2E9;stroke:#133F5D;stroke-width:0.5;stroke-linecap:round;stroke-linejoin:round;stroke-miterlimit:10;}
	.st118{fill:#D2E3ED;stroke:#10405D;stroke-width:0.5;stroke-linecap:round;stroke-linejoin:round;}
	.st119{fill:#D2E3ED;}
	.st120{fill:none;stroke:#10405D;stroke-width:0.5;stroke-linecap:round;stroke-linejoin:round;}
	.st121{fill:#65ACDC;}
	.st122{fill:#499BD4;}
	.st123{fill:#4196D1;}
	.st124{fill:#A8CF5E;}
	.st125{fill:#65ACDC;stroke:#133F5D;stroke-width:0.5;stroke-linecap:round;stroke-linejoin:round;}
	.st126{fill:#F2B8C4;}
	.st127{opacity:0.05;}
	.st128{fill:#CAD89A;}
	.st129{fill:#B5D680;stroke:#113F5D;stroke-width:0.5;stroke-miterlimit:10;}
	.st130{fill:#97BC45;}
	.st131{fill-rule:evenodd;clip-rule:evenodd;fill:#FFFFFF;}
	.st132{fill-rule:evenodd;clip-rule:evenodd;fill:#B5D680;}
	.st133{fill-rule:evenodd;clip-rule:evenodd;fill:#97BC45;}
	.st134{opacity:0.05;fill-rule:evenodd;clip-rule:evenodd;}
	.st135{opacity:0.57;fill:#F8FBFC;}
	.st136{opacity:0.57;fill:url(#SVGID_24_);}
	.st137{fill:#2D414D;stroke:#103F5D;stroke-width:0.5;stroke-miterlimit:10;}
	.st138{fill:#9F8480;stroke:#103F5D;stroke-width:0.5;stroke-miterlimit:10;}
	.st139{fill:#3F5667;}
	.st140{fill:#577A91;}
	.st141{fill:none;stroke:#103F5D;stroke-width:0.5;stroke-miterlimit:10;}
	.st142{fill:#3B5162;stroke:#113F5D;stroke-width:0.5;stroke-linecap:round;stroke-miterlimit:10;}
	.st143{fill:none;stroke:#103F5D;stroke-width:0.5;stroke-linejoin:round;stroke-miterlimit:10;}
	.st144{fill:#EDF1F8;}
	.st145{fill:none;stroke:#103F5D;stroke-width:0.5;stroke-linecap:round;stroke-linejoin:round;stroke-miterlimit:10;}
	.st146{fill:#E6CDB9;}
	.st147{opacity:0.1;fill:#113F5D;}
	.st148{fill:#D9B597;}
	.st149{fill:#364C5A;stroke:#103F5D;stroke-width:0.5;stroke-miterlimit:10;}
	.st150{fill:#E6CDB9;stroke:#103F5D;stroke-width:0.5;stroke-linecap:round;stroke-linejoin:round;stroke-miterlimit:10;}
	.st151{fill:#2D414D;}
	.st152{opacity:0.3;fill:#FFFFFF;}
	.st153{opacity:0.5;fill:none;stroke:#FFFFFF;stroke-width:0.5;stroke-linecap:round;stroke-linejoin:round;stroke-miterlimit:10;}
	.st154{opacity:0.3;fill:url(#SVGID_25_);}
	.st155{opacity:0.3;fill:url(#SVGID_26_);}
	.st156{opacity:0.3;fill:url(#SVGID_27_);}
	.st157{opacity:0.3;fill:url(#SVGID_28_);}
	.st158{opacity:0.3;fill:url(#SVGID_29_);}
	.st159{fill:none;stroke:#133F5D;stroke-width:3;stroke-linecap:round;stroke-linejoin:round;stroke-miterlimit:10;}
	.st160{opacity:0.57;fill:url(#SVGID_30_);}
	.st161{fill:none;stroke:#E6CDB9;stroke-width:0.5;stroke-linecap:round;stroke-linejoin:round;stroke-miterlimit:10;}
	.st162{opacity:0.3;fill:url(#SVGID_31_);}
	.st163{opacity:0.3;fill:url(#SVGID_32_);}
	.st164{opacity:0.3;fill:url(#SVGID_33_);}
	.st165{opacity:0.3;fill:url(#SVGID_34_);}
	.st166{opacity:0.3;fill:url(#SVGID_35_);}
	.st167{fill:#F17D51;}
	.st168{fill:#F3A181;}
	.st169{fill:#EE642F;}
	.st170{fill:#E8AF1C;}
	.st171{fill:#F7CAD3;}
	.st172{fill:#E96580;}
	.st173{fill:#EB778E;}
	.st174{fill:#CECFD3;}
	.st175{fill:#E7E7E9;}
	.st176{fill:#BEBFC5;}
	.st177{fill:#453C36;}
	.st178{fill:#5C5149;}
	.st179{fill:#39322D;}
	.st180{fill:#F0E2D5;}
	.st181{fill:#DDBA97;}
	.st182{fill:#D3C1B3;}
	.st183{fill:#EDE7E2;}
	.st184{fill:#C9B3A3;}
	.st185{fill:#BDA7A2;}
	.st186{fill:#A3837C;}
	.st187{fill:#E4EDCF;}
	.st188{fill:#133F5D;}
	.st189{fill:#185278;}
	.st190{fill:#0F2F44;}
	.st191{fill:#9CC6DC;}
	.st192{fill:#609AB9;}
	.st193{fill:#ECF2F7;}
	.st194{fill:#99C4DC;}
	.st195{fill:#2A81BC;}
	.st196{fill:#BAD986;}
	.st197{fill:#89BB37;}
	.st198{fill:#3E5567;}
	.st199{fill:#4F6C82;}
	.st200{fill:#314453;}
	.st201{fill:#49BAF1;}
	.st202{fill:#8DD4F6;}
	.st203{fill:#24ACEE;}
	.st204{fill:url(#SVGID_36_);stroke:#133F5D;stroke-width:0.5;stroke-miterlimit:10;}
	.st205{fill:#A3CBE2;}
	.st206{fill-rule:evenodd;clip-rule:evenodd;fill:#A3CBE2;}
	.st207{fill:#3E5567;stroke:#133F5D;stroke-width:0.5;stroke-miterlimit:10;}
	.st208{fill:#4F6C82;stroke:#133F5D;stroke-width:0.5;stroke-miterlimit:10;}
	.st209{fill:#6988A3;stroke:#133F5D;stroke-width:0.5;stroke-miterlimit:10;}
	
		.st210{fill-rule:evenodd;clip-rule:evenodd;fill:none;stroke:#FFFFFF;stroke-linecap:round;stroke-linejoin:round;stroke-miterlimit:10;}
	.st211{fill-rule:evenodd;clip-rule:evenodd;fill:none;stroke:#FFFFFF;stroke-linecap:round;stroke-miterlimit:10;}
	.st212{fill:none;stroke:#FFFFFF;stroke-width:0.75;stroke-linecap:round;stroke-linejoin:round;stroke-miterlimit:10;}
	.st213{fill:#C3DCEB;}
	.st214{fill-rule:evenodd;clip-rule:evenodd;fill:#C3DCEB;}
	.st215{fill:none;stroke:#FFFFFF;stroke-linecap:round;stroke-miterlimit:10;}
	.st216{fill:#9CC6DC;stroke:#133F5D;stroke-width:0.5;stroke-miterlimit:10;}
	.st217{fill:#6DAACB;stroke:#133F5D;stroke-width:0.5;stroke-miterlimit:10;}
	.st218{fill:#B9D6E6;stroke:#133F5D;stroke-width:0.5;stroke-miterlimit:10;}
	.st219{fill:#88BAD5;stroke:#133F5D;stroke-width:0.5;stroke-miterlimit:10;}
	.st220{fill:#589EC5;}
	.st221{fill:none;stroke:#FFFFFF;stroke-width:0.75;stroke-miterlimit:10;}
	.st222{fill:#4195D0;}
	.st223{fill:#A6CE5E;}
	.st224{fill-rule:evenodd;clip-rule:evenodd;fill:#020202;}
	.st225{fill-rule:evenodd;clip-rule:evenodd;fill:#55C6E6;}
	.st226{fill-rule:evenodd;clip-rule:evenodd;fill:#EC404A;}
	.st227{fill-rule:evenodd;clip-rule:evenodd;fill:#40BBEB;}
	.st228{fill-rule:evenodd;clip-rule:evenodd;fill:#EC3A4C;}
	.st229{fill-rule:evenodd;clip-rule:evenodd;fill:#5BC5E5;}
	.st230{fill-rule:evenodd;clip-rule:evenodd;fill:#FFC60A;}
	.st231{fill-rule:evenodd;clip-rule:evenodd;fill:#FBCC09;}
	.st232{fill-rule:evenodd;clip-rule:evenodd;fill:#FFC904;}
	.st233{fill-rule:evenodd;clip-rule:evenodd;fill:#FFCE0A;}
	.st234{fill-rule:evenodd;clip-rule:evenodd;fill:#FBD600;}
	.st235{fill-rule:evenodd;clip-rule:evenodd;fill:#F9D007;}
	.st236{fill-rule:evenodd;clip-rule:evenodd;fill:#70C082;}
	.st237{fill-rule:evenodd;clip-rule:evenodd;fill:#B42045;}
	.st238{fill-rule:evenodd;clip-rule:evenodd;fill:#DA284F;}
	.st239{fill-rule:evenodd;clip-rule:evenodd;fill:#E5354D;}
	.st240{fill-rule:evenodd;clip-rule:evenodd;fill:#DFB224;}
	.st241{fill-rule:evenodd;clip-rule:evenodd;fill:#64BA85;}
	.st242{fill-rule:evenodd;clip-rule:evenodd;fill:#F4C916;}
	.st243{fill-rule:evenodd;clip-rule:evenodd;fill:#D12252;}
	.st244{fill-rule:evenodd;clip-rule:evenodd;fill:#D52352;}
	.st245{fill-rule:evenodd;clip-rule:evenodd;fill:#54C6E9;}
	.st246{fill-rule:evenodd;clip-rule:evenodd;fill:#EA3150;}
	.st247{fill-rule:evenodd;clip-rule:evenodd;fill:#E62D50;}
	.st248{fill-rule:evenodd;clip-rule:evenodd;fill:#E22E53;}
	.st249{fill-rule:evenodd;clip-rule:evenodd;fill:#37C3F0;}
	.st250{fill-rule:evenodd;clip-rule:evenodd;fill:#FFC215;}
	.st251{fill-rule:evenodd;clip-rule:evenodd;fill:#F8BA13;}
	.st252{fill-rule:evenodd;clip-rule:evenodd;fill:#65BB6A;}
	.st253{fill-rule:evenodd;clip-rule:evenodd;fill:#4BC5EC;}
	.st254{fill-rule:evenodd;clip-rule:evenodd;fill:#60BA6C;}
	.st255{fill-rule:evenodd;clip-rule:evenodd;fill:#56B66D;}
	.st256{fill-rule:evenodd;clip-rule:evenodd;fill:#EA364E;}
	.st257{fill-rule:evenodd;clip-rule:evenodd;fill:#C62840;}
	.st258{fill-rule:evenodd;clip-rule:evenodd;fill:#D02C3F;}
	.st259{fill-rule:evenodd;clip-rule:evenodd;fill:#CD2B3F;}
	.st260{fill-rule:evenodd;clip-rule:evenodd;fill:#D22F3F;}
	.st261{fill-rule:evenodd;clip-rule:evenodd;fill:#D5303F;}
	.st262{fill-rule:evenodd;clip-rule:evenodd;fill:#DE2754;}
	.st263{fill-rule:evenodd;clip-rule:evenodd;fill:#DC2955;}
	.st264{fill-rule:evenodd;clip-rule:evenodd;fill:#E0BC22;}
	.st265{fill-rule:evenodd;clip-rule:evenodd;fill:#BD2642;}
	.st266{opacity:0.4;fill-rule:evenodd;clip-rule:evenodd;fill:#FFFFFF;enable-background:new    ;}
	.st267{opacity:0.57;fill:url(#SVGID_37_);}
	.st268{opacity:0.3;fill:url(#SVGID_38_);}
	.st269{opacity:0.3;fill:url(#SVGID_39_);}
	.st270{opacity:0.3;fill:url(#SVGID_40_);}
	.st271{opacity:0.3;fill:url(#SVGID_41_);}
	.st272{opacity:0.3;fill:url(#SVGID_42_);}
	.st273{opacity:0.1;fill-rule:evenodd;clip-rule:evenodd;fill:#144F5D;}
	.st274{opacity:0.1;fill:#144F5D;}
	.st275{fill:#A7CB56;}
	.st276{fill:#BAD67A;}
	
		.st277{fill-rule:evenodd;clip-rule:evenodd;fill:none;stroke:#ACD06A;stroke-width:4;stroke-linecap:round;stroke-linejoin:round;stroke-miterlimit:10;}
	.st278{fill-rule:evenodd;clip-rule:evenodd;fill:#ACD06A;}
	.st279{fill:#C9DE96;}
	.st280{opacity:0.1;}
	.st281{fill:#144F5D;}
	.st282{fill-rule:evenodd;clip-rule:evenodd;fill:#144F5D;}
	.st283{fill:#ACD06A;}
	.st284{fill-rule:evenodd;clip-rule:evenodd;fill:#B9D87F;}
	.st285{fill-rule:evenodd;clip-rule:evenodd;fill:#CEE1A2;}
	.st286{fill:#CBDF9D;}
	.st287{fill:url(#SVGID_43_);}
	.st288{fill:#B9D87F;}
	.st289{fill:#CEE1A2;}
	.st290{fill:#113F5D;}
	.st291{fill:#E8CFB9;stroke:#113F5D;stroke-width:0.5;stroke-miterlimit:10;}
	.st292{fill:#F49F96;}
	.st293{fill:#B9D87F;stroke:#113F5D;stroke-width:0.5;stroke-linecap:round;stroke-linejoin:round;stroke-miterlimit:10;}
	.st294{fill:#BD5D57;}
	.st295{fill:#CC807B;}
	.st296{fill:#121D44;}
	.st297{fill:#1D5980;stroke:#113F5D;stroke-width:0.5;stroke-linecap:round;stroke-linejoin:round;stroke-miterlimit:10;}
	.st298{fill:#ABD4E8;stroke:#113F5D;stroke-width:0.5;stroke-miterlimit:10;}
	.st299{fill:#81B6D1;stroke:#113F5D;stroke-width:0.5;stroke-miterlimit:10;}
	.st300{fill:none;stroke:#113F5D;stroke-width:0.5;stroke-linecap:round;stroke-linejoin:round;stroke-miterlimit:10;}
	.st301{fill:none;stroke:#113F5D;stroke-width:0.5;stroke-linecap:round;}
	.st302{fill:none;stroke:#113F5D;stroke-width:0.5;stroke-linecap:round;stroke-miterlimit:10;}
	.st303{fill:#ABD0E5;stroke:#113F5D;stroke-width:0.5;stroke-linecap:round;stroke-linejoin:round;stroke-miterlimit:10;}
	.st304{fill:none;stroke:#133F5D;stroke-width:2;stroke-linecap:round;stroke-linejoin:round;stroke-miterlimit:10;}
	.st305{fill:#A08680;stroke:#113F5D;stroke-width:0.5;stroke-miterlimit:10;}
	.st306{fill:#95ABBA;stroke:#113F5D;stroke-width:0.5;stroke-linecap:round;stroke-linejoin:round;stroke-miterlimit:10;}
	.st307{fill:#D9E6F0;stroke:#113F5D;stroke-width:0.5;stroke-linecap:round;stroke-linejoin:round;stroke-miterlimit:10;}
	.st308{fill:#3E93CF;stroke:#113F5D;stroke-width:0.5;stroke-miterlimit:10;}
	.st309{fill:#083E5F;stroke:#113F5D;stroke-width:0.5;stroke-linecap:round;stroke-linejoin:round;stroke-miterlimit:10;}
	.st310{fill:#E6CEBA;stroke:#113F5D;stroke-width:0.5;stroke-miterlimit:10;}
	.st311{opacity:0.4;fill:#334958;stroke:#113F5D;stroke-width:0.5;stroke-miterlimit:10;}
	.st312{fill:#2D4250;}
	.st313{fill:#E6CEBA;stroke:#113F5D;stroke-width:0.5;stroke-linecap:round;stroke-miterlimit:10;}
	.st314{fill:#083E5F;}
	.st315{fill:#D1BFB2;}
	.st316{fill:none;stroke:#113F5D;stroke-width:0.5;stroke-miterlimit:10;}
	.st317{fill-rule:evenodd;clip-rule:evenodd;fill:#D1BFB2;}
	.st318{fill-rule:evenodd;clip-rule:evenodd;fill:none;stroke:#113F5D;stroke-width:0.5;stroke-miterlimit:10;}
	.st319{fill:#AC928C;stroke:#113F5D;stroke-width:0.5;stroke-miterlimit:10;}
	.st320{fill:#9AD5F3;stroke:#113F5D;stroke-width:0.5;stroke-miterlimit:10;}
	.st321{fill:#9AD5F3;}
	.st322{fill:#73C5ED;}
	.st323{fill:#AC928C;}
	.st324{opacity:0.4;fill:#2C7DAD;}
	.st325{fill:#453C36;stroke:#113F5D;stroke-width:0.5;stroke-linecap:round;stroke-linejoin:round;stroke-miterlimit:10;}
	.st326{fill:#E6CEBA;stroke:#113F5D;stroke-width:0.5;stroke-linecap:round;stroke-linejoin:round;stroke-miterlimit:10;}
	.st327{fill:#4399D4;stroke:#113F5D;stroke-width:0.5;stroke-linecap:round;stroke-linejoin:round;stroke-miterlimit:10;}
	.st328{fill:#1D668D;stroke:#113F5D;stroke-width:0.5;stroke-linecap:round;stroke-linejoin:round;stroke-miterlimit:10;}
	.st329{fill:#8FC03F;}
	.st330{fill-rule:evenodd;clip-rule:evenodd;fill:#E8CFB9;stroke:#113F5D;stroke-width:0.5;stroke-miterlimit:10;}
	.st331{fill:#2F506B;stroke:#113F5D;stroke-width:0.5;stroke-miterlimit:10;}
	.st332{fill:#FFFFFF;stroke:#113F5D;stroke-width:0.5;stroke-miterlimit:10;}
	.st333{fill:#364C5A;stroke:#113F5D;stroke-width:0.5;stroke-miterlimit:10;}
	.st334{fill:#3E5567;stroke:#113F5D;stroke-width:0.5;stroke-miterlimit:10;}
	.st335{fill:#69A7C9;stroke:#113F5D;stroke-width:0.5;stroke-miterlimit:10;}
	.st336{fill-rule:evenodd;clip-rule:evenodd;fill:#ABD4E8;stroke:#113F5D;stroke-width:0.5;stroke-miterlimit:10;}
	.st337{fill:#CEE1A2;stroke:#113F5D;stroke-width:0.5;stroke-miterlimit:10;}
	.st338{fill-rule:evenodd;clip-rule:evenodd;fill:#CEE1A2;stroke:#113F5D;stroke-width:0.5;stroke-miterlimit:10;}
	.st339{fill-rule:evenodd;clip-rule:evenodd;fill:#E8CFB9;}
	.st340{fill-rule:evenodd;clip-rule:evenodd;fill:#81B6D1;stroke:#113F5D;stroke-width:0.5;stroke-miterlimit:10;}
	.st341{fill-rule:evenodd;clip-rule:evenodd;fill:#ABD4E8;}
	.st342{fill-rule:evenodd;clip-rule:evenodd;fill:none;stroke:#113F5D;stroke-width:0.5;}
	.st343{opacity:0.5;fill-rule:evenodd;clip-rule:evenodd;fill:#81B6D1;}
	.st344{fill-rule:evenodd;clip-rule:evenodd;fill:#DDB998;stroke:#113F5D;stroke-width:0.5;stroke-miterlimit:10;}
	.st345{fill-rule:evenodd;clip-rule:evenodd;fill:#2F506B;}
	.st346{fill-rule:evenodd;clip-rule:evenodd;fill:#D1BFB2;stroke:#113F5D;stroke-width:0.5;stroke-miterlimit:10;}
	.st347{fill-rule:evenodd;clip-rule:evenodd;fill:#68ABD6;stroke:#113F5D;stroke-width:0.5;stroke-miterlimit:10;}
	.st348{fill:#68ABD6;stroke:#113F5D;stroke-width:0.5;stroke-miterlimit:10;}
	.st349{fill-rule:evenodd;clip-rule:evenodd;fill:#2F506B;stroke:#113F5D;stroke-width:0.5;stroke-miterlimit:10;}
	.st350{opacity:0.4;fill:#84B9DD;}
	.st351{fill:#D2E3ED;stroke:#113F5D;stroke-width:0.5;}
	.st352{fill:#FFFFFF;stroke:#113F5D;stroke-width:0.5;}
	.st353{clip-path:url(#SVGID_45_);fill:url(#SVGID_46_);}
	.st354{clip-path:url(#SVGID_45_);}
	.st355{fill:url(#SVGID_47_);}
	.st356{opacity:0.2;clip-path:url(#SVGID_45_);}
	.st357{opacity:0.35;fill:url(#SVGID_48_);}
	.st358{opacity:0.5;fill:url(#SVGID_49_);}
	.st359{opacity:0.6;fill:url(#SVGID_50_);}
	.st360{fill:url(#SVGID_51_);}
	.st361{clip-path:url(#SVGID_45_);fill:url(#SVGID_52_);}
	.st362{opacity:0.3;clip-path:url(#SVGID_45_);fill:url(#SVGID_53_);}
	.st363{opacity:0.1;clip-path:url(#SVGID_45_);fill:#113F5D;}
	.st364{fill:none;stroke:#B9D888;stroke-width:2;}
	.st365{opacity:0.12;clip-path:url(#SVGID_45_);fill:url(#SVGID_54_);}
	.st366{clip-path:url(#SVGID_45_);fill:url(#SVGID_55_);}
	.st367{clip-path:url(#SVGID_45_);fill:url(#SVGID_56_);}
	.st368{clip-path:url(#SVGID_45_);fill:url(#SVGID_57_);}
	.st369{clip-path:url(#SVGID_45_);fill:url(#SVGID_58_);}
	.st370{fill:url(#SVGID_59_);}
	.st371{fill:url(#SVGID_60_);}
	.st372{opacity:0.2;fill:#FFFFFF;}
	.st373{fill:#BAD980;}
	.st374{fill:#4191CD;}
	.st375{fill:#A2C95B;}
	.st376{fill:url(#SVGID_61_);}
	.st377{fill:url(#SVGID_62_);}
	.st378{clip-path:url(#SVGID_45_);fill:url(#SVGID_63_);}
	.st379{clip-path:url(#SVGID_45_);fill:#E4EEF6;}
	.st380{fill:url(#SVGID_64_);}
	.st381{clip-path:url(#SVGID_45_);fill:#6988A3;}
	.st382{fill:url(#SVGID_65_);}
	.st383{opacity:0.3;fill:url(#SVGID_66_);}
	.st384{opacity:0.4;fill:url(#SVGID_67_);}
	.st385{opacity:0.3;clip-path:url(#SVGID_45_);}
	.st386{fill:url(#SVGID_68_);}
	.st387{clip-path:url(#SVGID_45_);fill:#4F6C82;}
	.st388{clip-path:url(#SVGID_45_);fill:#3E5567;}
	.st389{fill:#68A7C9;}
	.st390{fill:#62A3C7;}
	.st391{fill:#5B575B;}
	.st392{fill:#90BED8;}
	.st393{fill:#ACCFE1;}
	.st394{fill:#6D696D;}
	.st395{fill:#70ABCC;}
	.st396{fill:#DEECF3;}
	
		.st397{clip-path:url(#SVGID_45_);fill:none;stroke:#133F5D;stroke-width:0.5;stroke-linecap:round;stroke-linejoin:round;stroke-miterlimit:10;}
	.st398{fill:#549BC1;}
	.st399{fill:#CAE0EC;}
	.st400{fill:#A49FA3;}
	.st401{fill:#7DB4D1;}
	.st402{opacity:0.3;clip-path:url(#SVGID_45_);fill:#133F5D;}
	.st403{opacity:0.1;clip-path:url(#SVGID_45_);fill:#133F5D;}
	.st404{opacity:0.2;clip-path:url(#SVGID_45_);fill:#133F5D;}
	.st405{fill:url(#SVGID_69_);}
	.st406{fill:#F2F8FC;}
	.st407{fill:#BCDAF1;}
	.st408{fill:#CCE2F4;}
	.st409{fill:none;stroke:#ECF3F9;stroke-width:0.5;stroke-linecap:round;stroke-linejoin:round;stroke-miterlimit:10;}
	.st410{fill:none;stroke:#D8E7F3;stroke-width:0.5;stroke-linecap:round;stroke-linejoin:round;stroke-miterlimit:10;}
	.st411{fill:none;stroke:#D8E7F3;stroke-width:0.75;stroke-linecap:round;stroke-linejoin:round;stroke-miterlimit:10;}
	.st412{opacity:0.5;fill:#CCE2F4;}
	.st413{opacity:0.5;fill:#BCDAF1;}
	.st414{fill:#A3C9DE;}
	.st415{fill:#F1D17C;}
	.st416{fill:url(#SVGID_70_);}
	.st417{opacity:0.6;fill:#FFFAEF;}
	.st418{fill:url(#SVGID_71_);}
	.st419{opacity:0.3;fill:url(#SVGID_72_);}
	.st420{opacity:0.57;fill:url(#SVGID_73_);}
	.st421{opacity:0.57;fill:url(#SVGID_74_);}
	.st422{opacity:0.3;fill:url(#SVGID_75_);}
	.st423{fill:none;stroke:#FFFFFF;stroke-width:0.5;stroke-linecap:round;stroke-linejoin:round;stroke-miterlimit:10;}
	.st424{fill:url(#SVGID_76_);}
	.st425{opacity:0.3;fill:url(#SVGID_77_);}
	.st426{opacity:0.57;fill:url(#SVGID_78_);}
	.st427{opacity:0.57;fill:url(#SVGID_79_);}
	.st428{fill:#A0D6E8;}
	.st429{opacity:0.5;fill:#C2E2EF;}
	.st430{opacity:0.57;fill:url(#SVGID_80_);}
	.st431{fill:url(#SVGID_81_);}
	.st432{fill:#8CC2DD;}
	.st433{fill:#B3D3E8;}
	.st434{fill:#ECF3F9;}
	.st435{fill:url(#SVGID_82_);}
	.st436{opacity:0.3;fill:url(#SVGID_83_);}
	.st437{opacity:0.57;fill:url(#SVGID_84_);}
	.st438{opacity:0.57;fill:url(#SVGID_85_);}
	.st439{fill:#C2E2EF;}
	.st440{fill:url(#SVGID_86_);}
	.st441{opacity:0.5;fill:url(#SVGID_87_);}
	.st442{opacity:0.5;fill:url(#SVGID_88_);}
	.st443{opacity:0.5;fill:none;stroke:#FFFFFF;stroke-width:0.25;stroke-linecap:round;stroke-linejoin:round;stroke-miterlimit:10;}
	.st444{opacity:0.05;fill:#133F5D;}
	.st445{fill:url(#SVGID_89_);}
	.st446{opacity:0.3;fill:url(#SVGID_90_);}
	.st447{opacity:0.57;fill:url(#SVGID_91_);}
	.st448{opacity:0.6;}
	.st449{opacity:0.8;fill:#A8CF5E;}
	.st450{opacity:0.8;fill:url(#SVGID_92_);}
	.st451{fill:#DAEEF5;}
	.st452{fill:url(#SVGID_93_);}
	.st453{fill:url(#SVGID_94_);}
	.st454{opacity:0.57;fill:url(#SVGID_95_);}
	.st455{opacity:0.5;fill:url(#SVGID_96_);}
	.st456{fill:#DDBCA2;stroke:#103F5D;stroke-width:0.5;stroke-linecap:round;stroke-linejoin:round;stroke-miterlimit:10;}
	.st457{fill:#E6CDBA;stroke:#103F5D;stroke-width:0.5;stroke-linecap:round;stroke-linejoin:round;stroke-miterlimit:10;}
	.st458{fill:#083E5F;stroke:#103F5D;stroke-width:0.5;stroke-linecap:round;stroke-linejoin:round;stroke-miterlimit:10;}
	.st459{opacity:0.3;fill:#113F5D;}
	.st460{fill:#A1B2BE;stroke:#133F5D;stroke-width:0.5;stroke-miterlimit:10;}
	.st461{fill:#FFFFFF;stroke:#133F5D;stroke-width:0.5;stroke-miterlimit:10;}
	.st462{fill:#2370A1;stroke:#10405D;stroke-width:0.5;stroke-linecap:round;stroke-linejoin:round;stroke-miterlimit:10;}
	.st463{fill:#4399D4;}
	.st464{fill:#A472A5;}
	.st465{fill:#103F5D;}
	.st466{fill:#E8D0BC;stroke:#10405D;stroke-width:0.5;stroke-linecap:round;stroke-linejoin:round;stroke-miterlimit:10;}
	.st467{fill:#4399D4;stroke:#10405D;stroke-width:0.5;stroke-linecap:round;stroke-linejoin:round;stroke-miterlimit:10;}
	.st468{opacity:0.5;fill:url(#SVGID_97_);}
	.st469{fill:#1D5980;}
	.st470{opacity:0.5;fill:url(#SVGID_98_);}
	.st471{fill:#DEBDA3;stroke:#113F5D;stroke-width:0.5;stroke-linecap:round;stroke-linejoin:round;stroke-miterlimit:10;}
	.st472{fill:#A1BDCB;stroke:#133F5D;stroke-width:0.5;stroke-miterlimit:10;}
	.st473{fill:#728C9E;}
	.st474{fill:#A1B2BE;}
	.st475{opacity:0.1;fill:#FFFFFF;}
	.st476{fill:none;}
	.st477{fill:none;stroke:#133F5D;stroke-width:0.5;stroke-miterlimit:10;}
	.st478{fill:#FFFFFF;stroke:#113F5D;stroke-width:0.5;stroke-linecap:round;stroke-linejoin:round;stroke-miterlimit:10;}
	.st479{fill:none;stroke:#E6CEBA;stroke-width:0.5;stroke-linecap:round;stroke-linejoin:round;stroke-miterlimit:10;}
	.st480{fill:none;stroke:#FFFFFF;stroke-linecap:round;stroke-linejoin:round;stroke-dasharray:11.9703,11.9703;}
	.st481{fill:none;stroke:#FFFFFF;stroke-linecap:round;stroke-linejoin:round;stroke-dasharray:12.0054,12.0054;}
	.st482{opacity:0.5;fill:url(#SVGID_99_);}
	.st483{opacity:0.5;fill:url(#SVGID_100_);}
	.st484{fill:#E7F2D2;}
	.st485{fill:#F7E6AC;}
	.st486{fill:#F1F5E7;}
	.st487{fill:#EEF7DC;}
	.st488{opacity:0.5;fill:url(#SVGID_101_);}
	.st489{opacity:0.5;fill:url(#SVGID_102_);}
	.st490{fill:#EEC7D0;}
	.st491{fill:#F1D1D8;}
	.st492{fill:#EDC5CE;}
	.st493{opacity:0.5;fill:#F9E5EB;}
	.st494{opacity:0.5;fill:url(#SVGID_103_);}
	.st495{opacity:0.2;fill:url(#SVGID_104_);}
	.st496{fill:#F5D87A;}
	.st497{fill:#E4EFF6;}
	.st498{fill:#EBF4F9;}
	.st499{opacity:0.5;fill:#F8FDFF;}
	.st500{fill:#DCEAF5;}
	.st501{opacity:0.2;fill:url(#SVGID_105_);}
	.st502{opacity:0.2;fill:url(#SVGID_106_);}
	.st503{fill:#FAEBB8;}
	.st504{fill:#F8DF8B;}
	.st505{opacity:0.5;fill:#FFFBF0;}
	.st506{opacity:0.2;fill:url(#SVGID_107_);}
	.st507{opacity:0.2;fill:url(#SVGID_108_);}
	.st508{fill:#E6F8FC;}
	.st509{fill:#EAF4D7;}
	.st510{opacity:0.5;fill:#F3FCFF;}
	.st511{opacity:0.5;fill:#FFFFFF;}
	.st512{fill:none;stroke:#BEBFC5;stroke-width:0.5;stroke-miterlimit:10;}
	.st513{opacity:0.5;fill:#BEBFC5;}
	.st514{fill:#FFFFFF;stroke:#133F5D;stroke-width:0.5;stroke-linecap:round;stroke-linejoin:round;stroke-miterlimit:10;}
	.st515{fill:none;stroke:#133F5D;stroke-width:0.5;stroke-linecap:round;stroke-linejoin:round;}
	.st516{fill:#E8D1BA;stroke:#133F5D;stroke-width:0.5;stroke-linecap:round;stroke-linejoin:round;}
	.st517{opacity:0.8;fill:#D3E5EF;}
	.st518{opacity:0.5;fill:#69A8CA;}
	.st519{fill:#C0D48B;}
	.st520{fill:none;stroke:#0C405D;stroke-width:0.5;stroke-linecap:round;stroke-linejoin:round;stroke-miterlimit:10;}
	.st521{opacity:0.5;fill:url(#SVGID_109_);}
	.st522{opacity:0.5;fill:url(#SVGID_110_);}
	.st523{fill:#CEDEA5;}
	.st524{fill:#E3EBCD;}
	.st525{opacity:0.5;fill:#FFF8ED;}
	.st526{fill:#E4EEF6;}
	.st527{opacity:0.3;fill:url(#SVGID_111_);}
	.st528{fill:url(#SVGID_112_);}
	.st529{opacity:0.1;fill:#0E3F5D;}
	.st530{fill:url(#SVGID_113_);}
	.st531{fill:url(#SVGID_114_);}
	.st532{fill:url(#SVGID_115_);}
	.st533{fill:#4290CD;}
	.st534{fill:#E5CBB9;stroke:#0A405D;stroke-width:0.25;stroke-linecap:round;stroke-linejoin:round;stroke-miterlimit:10;}
	.st535{fill:#FFFFFF;stroke:#0A405D;stroke-width:0.25;stroke-linecap:round;stroke-linejoin:round;stroke-miterlimit:10;}
	.st536{fill:#B9D87F;stroke:#0A405D;stroke-width:0.25;stroke-linecap:round;stroke-linejoin:round;stroke-miterlimit:10;}
	.st537{fill:#E5CBB9;}
	.st538{fill:#D9BAA1;}
	.st539{fill:#2F506B;stroke:#113F5D;stroke-width:0.25;stroke-miterlimit:10;}
	.st540{fill:none;stroke:#0A405D;stroke-width:0.25;stroke-linecap:round;stroke-linejoin:round;stroke-miterlimit:10;}
	.st541{opacity:0.8;fill:#98D4F3;}
	.st542{opacity:0.8;fill:url(#SVGID_116_);}
	.st543{opacity:0.5;fill:url(#SVGID_117_);}
	.st544{opacity:0.7;fill:url(#SVGID_118_);}
	.st545{fill:none;stroke:#FFFFFF;stroke-width:0.25;stroke-linecap:round;stroke-linejoin:round;stroke-miterlimit:10;}
	.st546{opacity:0.702;fill:#FFFFFF;}
	.st547{fill:#453C36;stroke:#0A405D;stroke-width:0.25;stroke-linecap:round;stroke-linejoin:round;stroke-miterlimit:10;}
	.st548{fill:#FFFFFF;stroke:#0A405D;stroke-width:0.25;stroke-miterlimit:10;}
	.st549{fill:#DABBA2;}
	.st550{opacity:0.4;fill:#B2D6E9;}
	.st551{fill:#3180BD;}
	.st552{fill:#06344D;}
	
		.st553{fill:none;stroke:#FFFFFF;stroke-width:0.5;stroke-linecap:round;stroke-linejoin:round;stroke-miterlimit:10;stroke-dasharray:2;}
	.st554{fill:url(#SVGID_119_);}
	.st555{fill:#0B4A6F;}
	.st556{fill:#0B3F5D;}
	.st557{opacity:0.06;fill:#FFFFFF;}
	.st558{fill:url(#SVGID_120_);}
	.st559{fill:#D2E4ED;}
	.st560{fill:none;stroke:#0E405D;stroke-width:0.5;stroke-linecap:round;stroke-linejoin:round;stroke-miterlimit:10;}
	.st561{fill:#B2D6E9;}
	.st562{fill:none;stroke:url(#SVGID_121_);stroke-width:2;stroke-linecap:round;stroke-linejoin:round;stroke-miterlimit:10;}
	.st563{fill:none;stroke:url(#SVGID_122_);stroke-width:2;stroke-linecap:round;stroke-linejoin:round;stroke-miterlimit:10;}
	.st564{fill:#90BB40;}
	.st565{fill:#2E76AB;}
	.st566{fill:#9FC65A;}
	.st567{fill:url(#SVGID_123_);}
	.st568{fill:url(#SVGID_124_);}
	.st569{fill:url(#SVGID_125_);}
	.st570{fill:url(#SVGID_126_);}
	.st571{fill:url(#SVGID_127_);}
	.st572{fill:url(#SVGID_128_);}
	.st573{fill:url(#SVGID_129_);}
	.st574{fill:url(#SVGID_130_);}
	.st575{opacity:0.2;fill:url(#SVGID_131_);}
	.st576{fill:none;stroke:#3998D3;stroke-width:5;stroke-linecap:round;stroke-linejoin:round;}
	.st577{opacity:0.35;fill:url(#SVGID_134_);}
	.st578{opacity:0.5;fill:url(#SVGID_135_);}
	.st579{opacity:0.6;fill:url(#SVGID_136_);}
	.st580{fill:url(#SVGID_137_);}
	.st581{fill:url(#SVGID_138_);}
	.st582{fill:url(#SVGID_139_);}
	.st583{fill:#6988A3;}
	.st584{fill:url(#SVGID_140_);}
	.st585{opacity:0.3;fill:url(#SVGID_141_);}
	.st586{opacity:0.4;fill:url(#SVGID_142_);}
	.st587{opacity:0.3;}
	.st588{fill:url(#SVGID_143_);}
	.st589{opacity:0.5;fill:url(#SVGID_144_);}
	.st590{opacity:0.3;fill:#133F5D;}
	.st591{opacity:0.2;fill:#133F5D;}
	.st592{opacity:0.5;fill:url(#SVGID_145_);}
	.st593{opacity:0.5;fill:url(#SVGID_146_);}
	.st594{fill:#ADD2E7;stroke:#10405D;stroke-width:0.5;stroke-linecap:round;stroke-linejoin:round;stroke-miterlimit:10;}
	.st595{fill:#ABD3E6;stroke:#103F5D;stroke-width:0.5;stroke-linecap:round;stroke-linejoin:round;stroke-miterlimit:10;}
	.st596{opacity:0.5;fill:url(#SVGID_147_);}
	.st597{opacity:0.5;fill:url(#SVGID_148_);}
	.st598{fill:#C7D997;}
	.st599{fill:#D9E3BB;}
	.st600{opacity:0.5;fill:url(#SVGID_149_);}
	.st601{opacity:0.5;fill:url(#SVGID_150_);}
	.st602{fill:#D68094;}
	.st603{fill:#DF97A7;}
	.st604{opacity:0.5;fill:#F5DFE5;}
	.st605{opacity:0.5;fill:url(#SVGID_151_);}
	.st606{opacity:0.2;fill:url(#SVGID_152_);}
	.st607{fill:#ABCFE0;}
	.st608{fill:#D0E4EE;}
	.st609{opacity:0.5;fill:#F9F9F9;}
	.st610{opacity:0.2;fill:url(#SVGID_153_);}
	.st611{opacity:0.2;fill:url(#SVGID_154_);}
	.st612{opacity:0.5;fill:#FFF6DC;}
	.st613{opacity:0.2;fill:url(#SVGID_155_);}
	.st614{opacity:0.2;fill:url(#SVGID_156_);}
	.st615{fill:#C9EBFB;}
	.st616{fill:#AAD15E;}
	.st617{opacity:0.4;fill:#DEECF7;}
	.st618{fill:url(#SVGID_157_);}
	.st619{fill:url(#SVGID_158_);}
	.st620{fill:#EB778E;stroke:#11405E;stroke-width:0.75;stroke-linecap:round;stroke-linejoin:round;stroke-miterlimit:10;}
	.st621{fill:#F4CD55;stroke:#133F5D;stroke-width:0.75;stroke-miterlimit:10;}
	.st622{fill:#11405E;}
	.st623{fill:none;stroke:#11405E;stroke-linecap:round;stroke-linejoin:round;stroke-miterlimit:10;}
	.st624{fill:#65A6D6;stroke:#133F5D;stroke-width:0.75;}
	.st625{fill:#CEE1A2;stroke:#113F5D;stroke-width:0.75;stroke-linecap:round;stroke-linejoin:round;stroke-miterlimit:10;}
	.st626{fill:#99C4D8;}
	.st627{fill:#65A6D6;}
	.st628{fill:none;stroke:#093F5D;stroke-width:0.75;stroke-linecap:round;stroke-linejoin:round;stroke-miterlimit:10;}
	.st629{fill:#A3CC5D;stroke:#133F5D;stroke-width:0.75;stroke-miterlimit:10;}
	.st630{fill:none;stroke:#123F5D;stroke-width:0.75;stroke-linecap:round;stroke-linejoin:round;stroke-miterlimit:10;}
	.st631{fill:#FAE29A;}
	.st632{fill:#9E9D9D;}
	.st633{fill:#D6D6D7;}
	.st634{opacity:0.5;fill:#D6D6D7;}
	.st635{opacity:0.5;fill:url(#SVGID_171_);}
	.st636{opacity:0.2;fill:url(#SVGID_172_);}
	.st637{fill:#A6CCE1;}
	.st638{fill:#BFD9E8;}
	.st639{opacity:0.5;fill:#D5E5EF;}
	.st640{fill:#C7C7C9;}
	.st641{fill:#AAD169;}
	.st642{fill:#233D51;}
	.st643{fill:#31516B;}
	.st644{fill:#D1D1D1;}
	.st645{fill:#EAEAEA;}
	.st646{fill:none;stroke:#12405D;stroke-width:0.5;stroke-linecap:round;stroke-linejoin:round;stroke-miterlimit:10;}
	.st647{fill:url(#SVGID_173_);}
	.st648{fill:#A2CA5C;}
	.st649{fill:#E6E5E5;}
	.st650{clip-path:url(#SVGID_175_);}
	.st651{clip-path:url(#SVGID_179_);}
	.st652{clip-path:url(#SVGID_183_);}
	.st653{fill:#4292CE;}
	.st654{clip-path:url(#SVGID_187_);}
	.st655{opacity:0.1;fill:#FFFFFF;enable-background:new    ;}
	.st656{clip-path:url(#SVGID_191_);}
	.st657{clip-path:url(#SVGID_195_);}
	.st658{clip-path:url(#SVGID_201_);}
	.st659{clip-path:url(#SVGID_205_);}
	.st660{clip-path:url(#SVGID_209_);}
	.st661{clip-path:url(#SVGID_213_);}
	.st662{opacity:0.15;fill:#FFFFFF;enable-background:new    ;}
	.st663{clip-path:url(#SVGID_217_);}
	.st664{clip-path:url(#SVGID_221_);}
	.st665{clip-path:url(#SVGID_225_);}
	.st666{clip-path:url(#SVGID_229_);}
	.st667{clip-path:url(#SVGID_233_);}
	.st668{clip-path:url(#SVGID_237_);}
	.st669{clip-path:url(#SVGID_241_);}
	.st670{clip-path:url(#SVGID_245_);}
	.st671{clip-path:url(#SVGID_249_);}
	.st672{clip-path:url(#SVGID_253_);}
	.st673{clip-path:url(#SVGID_257_);}
	.st674{clip-path:url(#SVGID_261_);}
	.st675{clip-path:url(#SVGID_265_);}
	.st676{clip-path:url(#SVGID_269_);}
	.st677{clip-path:url(#SVGID_273_);}
	.st678{fill:url(#SVGID_276_);}
	.st679{clip-path:url(#SVGID_278_);}
	.st680{clip-path:url(#SVGID_286_);}
	.st681{clip-path:url(#SVGID_290_);}
	.st682{clip-path:url(#SVGID_294_);}
	.st683{fill:#FFFFFF;stroke:#10405D;stroke-linecap:round;stroke-linejoin:round;stroke-miterlimit:10;}
	.st684{opacity:0.3;fill-rule:evenodd;clip-rule:evenodd;fill:#4195D0;}
	.st685{fill:none;stroke:#113F5D;stroke-linecap:round;stroke-linejoin:round;stroke-miterlimit:10;}
	.st686{fill:#E4E2E1;}
	.st687{fill:#4291CE;}
	.st688{fill:#EFEFEF;}
	.st689{fill:url(#SVGID_297_);}
	.st690{clip-path:url(#SVGID_299_);}
	.st691{fill:#AFD38B;}
	.st692{clip-path:url(#SVGID_305_);}
	.st693{clip-path:url(#SVGID_309_);}
	.st694{clip-path:url(#SVGID_313_);}
	.st695{clip-path:url(#SVGID_317_);}
	.st696{fill:#EFF1F3;}
	.st697{fill:#BFBFBF;}
	.st698{clip-path:url(#SVGID_321_);}
	.st699{clip-path:url(#SVGID_325_);}
	.st700{fill:#5AA1D5;}
	.st701{clip-path:url(#SVGID_329_);}
	.st702{fill:#B3D062;}
	.st703{fill:#B8D787;}
	.st704{clip-path:url(#SVGID_333_);}
	.st705{clip-path:url(#SVGID_337_);}
	.st706{fill:#C66A88;}
	.st707{fill:#CE6060;}
	.st708{clip-path:url(#SVGID_341_);}
	.st709{clip-path:url(#SVGID_347_);}
	.st710{fill:#BBD674;}
	.st711{fill:none;stroke:#10405D;stroke-width:0.25;stroke-linecap:round;stroke-linejoin:round;stroke-miterlimit:10;}
	.st712{fill:url(#SVGID_350_);}
	.st713{fill:url(#SVGID_351_);}
	.st714{fill:#C3DDEE;}
	.st715{opacity:0.3;fill:url(#SVGID_352_);}
	.st716{fill:#AAD073;}
	.st717{fill:#30506B;stroke:#133F5D;stroke-width:0.5;stroke-miterlimit:10;}
	.st718{fill:#ABD4E8;}
	.st719{fill:#89C4E0;}
	.st720{fill:#E6CEBA;}
	.st721{fill:#DBBB9D;}
	.st722{opacity:0.1;fill:#123F5D;}
	.st723{fill:#FFFFFF;stroke:#113F5D;stroke-width:0.5;stroke-linecap:round;stroke-miterlimit:10;}
	.st724{opacity:0.5;fill:#ABD4E8;}
	.st725{opacity:0.8;fill:none;stroke:#FFFFFF;stroke-width:0.5;stroke-linecap:round;stroke-linejoin:round;stroke-miterlimit:10;}
	.st726{opacity:0.3;fill:url(#SVGID_353_);}
	.st727{fill:#62A6D8;}
	.st728{clip-path:url(#SVGID_355_);}
	.st729{fill:#3487C0;}
	.st730{clip-path:url(#SVGID_359_);}
	.st731{clip-path:url(#SVGID_363_);}
	.st732{clip-path:url(#SVGID_367_);}
	.st733{fill:#C86A8A;}
	.st734{fill:#B6D463;}
	.st735{clip-path:url(#SVGID_371_);}
	.st736{clip-path:url(#SVGID_375_);}
	.st737{clip-path:url(#SVGID_379_);}
	.st738{fill:#A5CE5D;}
	.st739{fill:#4195D1;}
	.st740{clip-path:url(#SVGID_383_);}
	.st741{fill:#6AABDA;enable-background:new    ;}
	.st742{clip-path:url(#SVGID_387_);}
	.st743{fill:#5D9EC8;}
	.st744{clip-path:url(#SVGID_391_);}
	.st745{clip-path:url(#SVGID_395_);}
	.st746{fill:#77B2DD;}
	.st747{clip-path:url(#SVGID_399_);}
	.st748{fill:#438EBF;}
	.st749{clip-path:url(#SVGID_403_);}
	.st750{fill:#D8DADB;}
	.st751{clip-path:url(#SVGID_407_);}
	.st752{fill:#F2F5F7;}
	.st753{clip-path:url(#SVGID_411_);}
	.st754{fill:#F3F6F7;}
	.st755{fill:#579BCB;}
	.st756{clip-path:url(#SVGID_415_);}
	.st757{clip-path:url(#SVGID_419_);}
	.st758{clip-path:url(#SVGID_423_);}
	.st759{fill:#F1F4F6;}
	.st760{fill:#59A4D9;}
	.st761{clip-path:url(#SVGID_427_);}
	.st762{clip-path:url(#SVGID_431_);}
	.st763{fill:#BAD989;}
	.st764{clip-path:url(#SVGID_435_);}
	.st765{fill:#D06060;}
	.st766{clip-path:url(#SVGID_439_);}
	.st767{clip-path:url(#SVGID_443_);}
	.st768{clip-path:url(#SVGID_447_);}
	.st769{fill:#4294D0;}
	.st770{clip-path:url(#SVGID_451_);}
	.st771{clip-path:url(#SVGID_455_);}
	.st772{fill:#B3D78F;}
	.st773{clip-path:url(#SVGID_459_);}
	.st774{clip-path:url(#SVGID_463_);}
	.st775{fill:#F1F1F1;}
	.st776{fill:#EAF4FB;}
	.st777{clip-path:url(#SVGID_467_);}
	.st778{clip-path:url(#SVGID_471_);}
	.st779{clip-path:url(#SVGID_475_);}
	.st780{clip-path:url(#SVGID_479_);}
	.st781{clip-path:url(#SVGID_483_);}
	.st782{clip-path:url(#SVGID_487_);}
	.st783{clip-path:url(#SVGID_491_);}
	.st784{clip-path:url(#SVGID_495_);}
	.st785{clip-path:url(#SVGID_499_);}
	.st786{clip-path:url(#SVGID_503_);}
	.st787{clip-path:url(#SVGID_507_);}
	.st788{clip-path:url(#SVGID_511_);}
	.st789{clip-path:url(#SVGID_515_);}
	.st790{clip-path:url(#SVGID_519_);}
	.st791{clip-path:url(#SVGID_523_);}
	.st792{clip-path:url(#SVGID_527_);}
	.st793{clip-path:url(#SVGID_531_);}
	.st794{clip-path:url(#SVGID_535_);}
	.st795{clip-path:url(#SVGID_539_);}
	.st796{clip-path:url(#SVGID_543_);}
	.st797{clip-path:url(#SVGID_547_);}
	.st798{clip-path:url(#SVGID_551_);}
	.st799{clip-path:url(#SVGID_555_);}
	.st800{clip-path:url(#SVGID_559_);}
	.st801{fill:url(#SVGID_562_);}
	.st802{clip-path:url(#SVGID_564_);}
	.st803{clip-path:url(#SVGID_568_);}
	.st804{clip-path:url(#SVGID_572_);}
	.st805{clip-path:url(#SVGID_576_);}
	.st806{clip-path:url(#SVGID_580_);}
	.st807{clip-path:url(#SVGID_584_);}
	.st808{clip-path:url(#SVGID_590_);}
	.st809{clip-path:url(#SVGID_594_);}
	.st810{fill:#B6C4CB;}
	.st811{clip-path:url(#SVGID_598_);}
	.st812{clip-path:url(#SVGID_602_);}
	.st813{clip-path:url(#SVGID_606_);}
	.st814{clip-path:url(#SVGID_610_);}
	.st815{clip-path:url(#SVGID_614_);}
	.st816{clip-path:url(#SVGID_618_);}
	.st817{clip-path:url(#SVGID_622_);}
	.st818{clip-path:url(#SVGID_626_);}
	.st819{clip-path:url(#SVGID_630_);}
	.st820{clip-path:url(#SVGID_634_);}
	.st821{clip-path:url(#SVGID_638_);}
	.st822{clip-path:url(#SVGID_642_);}
	.st823{clip-path:url(#SVGID_646_);}
	.st824{clip-path:url(#SVGID_650_);}
	.st825{clip-path:url(#SVGID_654_);}
	.st826{clip-path:url(#SVGID_658_);}
	.st827{clip-path:url(#SVGID_662_);}
	.st828{fill:url(#SVGID_665_);}
	.st829{clip-path:url(#SVGID_667_);}
	.st830{clip-path:url(#SVGID_675_);}
	.st831{clip-path:url(#SVGID_679_);}
	.st832{clip-path:url(#SVGID_683_);}
	.st833{fill:url(#SVGID_686_);}
	.st834{clip-path:url(#SVGID_688_);}
	.st835{clip-path:url(#SVGID_694_);}
	.st836{clip-path:url(#SVGID_698_);}
	.st837{clip-path:url(#SVGID_702_);}
	.st838{clip-path:url(#SVGID_706_);}
	.st839{clip-path:url(#SVGID_710_);}
	.st840{clip-path:url(#SVGID_714_);}
	.st841{clip-path:url(#SVGID_718_);}
	.st842{clip-path:url(#SVGID_722_);}
	.st843{clip-path:url(#SVGID_726_);}
	.st844{clip-path:url(#SVGID_730_);}
	.st845{clip-path:url(#SVGID_736_);}
	.st846{fill:url(#SVGID_739_);}
	.st847{fill:url(#SVGID_740_);}
	.st848{opacity:0.3;fill:url(#SVGID_741_);}
	.st849{fill:#153C57;}
	.st850{fill:none;stroke:#FF0000;stroke-miterlimit:10;}
	.st851{fill:none;stroke:#153C57;stroke-miterlimit:10;}
	.st852{fill:#FFFFFF;stroke:#FF0000;stroke-miterlimit:10;}
	.st853{fill:#C4C4C4;}
	.st854{fill:#DFDFDF;}
	.st855{fill:url(#SVGID_742_);}
	.st856{clip-path:url(#SVGID_744_);}
	.st857{clip-path:url(#SVGID_748_);}
	.st858{clip-path:url(#SVGID_752_);}
	.st859{clip-path:url(#SVGID_756_);}
	.st860{clip-path:url(#SVGID_760_);}
	.st861{clip-path:url(#SVGID_764_);}
	.st862{clip-path:url(#SVGID_770_);}
	.st863{clip-path:url(#SVGID_774_);}
	.st864{clip-path:url(#SVGID_778_);}
	.st865{clip-path:url(#SVGID_782_);}
	.st866{clip-path:url(#SVGID_786_);}
	.st867{clip-path:url(#SVGID_790_);}
	.st868{clip-path:url(#SVGID_794_);}
	.st869{clip-path:url(#SVGID_798_);}
	.st870{clip-path:url(#SVGID_802_);}
	.st871{clip-path:url(#SVGID_806_);}
	.st872{clip-path:url(#SVGID_810_);}
	.st873{clip-path:url(#SVGID_814_);}
	.st874{clip-path:url(#SVGID_818_);}
	.st875{clip-path:url(#SVGID_822_);}
	.st876{clip-path:url(#SVGID_826_);}
	.st877{clip-path:url(#SVGID_830_);}
	.st878{clip-path:url(#SVGID_834_);}
	.st879{clip-path:url(#SVGID_838_);}
	.st880{clip-path:url(#SVGID_842_);}
	.st881{fill:url(#SVGID_845_);}
	.st882{clip-path:url(#SVGID_847_);}
	.st883{clip-path:url(#SVGID_855_);}
	.st884{clip-path:url(#SVGID_859_);}
	.st885{clip-path:url(#SVGID_863_);}
	.st886{fill:url(#SVGID_866_);}
	.st887{clip-path:url(#SVGID_868_);}
	.st888{clip-path:url(#SVGID_874_);}
	.st889{clip-path:url(#SVGID_878_);}
	.st890{clip-path:url(#SVGID_882_);}
	.st891{clip-path:url(#SVGID_886_);}
	.st892{clip-path:url(#SVGID_890_);}
	.st893{clip-path:url(#SVGID_894_);}
	.st894{clip-path:url(#SVGID_898_);}
	.st895{clip-path:url(#SVGID_902_);}
	.st896{clip-path:url(#SVGID_906_);}
	.st897{clip-path:url(#SVGID_910_);}
	.st898{clip-path:url(#SVGID_916_);}
	.st899{fill:url(#SVGID_919_);}
	.st900{fill:url(#SVGID_920_);}
	.st901{opacity:0.3;fill:url(#SVGID_921_);}
	.st902{opacity:0.8;fill:url(#SVGID_922_);}
	.st903{opacity:0.8;fill:url(#SVGID_923_);}
	.st904{opacity:0.6392;fill:#FFFFFF;}
	.st905{opacity:0.6392;}
	.st906{fill:#2E516B;}
	.st907{fill:#093F5D;}
	.st908{fill:#708091;}
	.st909{fill:#7FB3DB;}
	.st910{fill:#4494D0;}
	.st911{opacity:0.3;fill:url(#SVGID_924_);}
	.st912{opacity:0.57;fill:url(#SVGID_925_);}
	.st913{clip-path:url(#SVGID_927_);}
	.st914{opacity:0.4;fill:#FFFFFF;}
	.st915{fill:#B9D87F;stroke:#0E3F5D;stroke-width:0.5;stroke-linecap:round;stroke-linejoin:round;stroke-miterlimit:10;}
	.st916{fill:#E5CBB9;stroke:#0B3F5D;stroke-width:0.5;stroke-linecap:round;stroke-linejoin:round;stroke-miterlimit:10;}
	.st917{fill:#FFFFFF;stroke:#0B3F5D;stroke-width:0.5;stroke-miterlimit:10;}
	.st918{fill:#E4E3E2;}
	.st919{fill:#405767;stroke:#0E3F5D;stroke-width:0.5;stroke-miterlimit:10;}
	.st920{fill:#2E516B;stroke:#0E3F5D;stroke-width:0.5;stroke-miterlimit:10;}
	.st921{fill:none;stroke:#0B3F5D;stroke-width:0.5;stroke-linecap:round;stroke-miterlimit:10;}
	.st922{fill:#DBB899;}
	.st923{fill:#0E405D;}
	.st924{fill:#DBB899;stroke:#0E405D;stroke-width:0.5;stroke-linecap:round;}
	.st925{fill:#A9CDE1;stroke:#0E3F5D;stroke-width:0.5;stroke-linecap:round;stroke-linejoin:round;stroke-miterlimit:10;}
	.st926{fill:#60BEEB;stroke:#0E405D;stroke-width:0.5;stroke-miterlimit:10;}
	.st927{fill:#E1F1F8;}
	.st928{fill:none;stroke:#0E405D;stroke-width:0.25;stroke-linecap:round;stroke-linejoin:round;stroke-miterlimit:10;}
	.st929{fill:#A7C663;stroke:#0E405D;stroke-width:0.5;stroke-miterlimit:10;}
	.st930{fill:#9D8280;stroke:#0B3F5D;stroke-width:0.5;stroke-miterlimit:10;}
	.st931{fill:none;stroke:#0E405D;stroke-width:0.5;stroke-miterlimit:10;}
	.st932{fill:none;stroke:#0E405D;stroke-width:0.5;stroke-linecap:round;stroke-miterlimit:10;}
	.st933{fill:none;stroke:#0E405D;stroke-width:0.5;stroke-linecap:round;}
	.st934{fill:#FFFFFF;stroke:#0B3F5D;stroke-width:0.5;stroke-linecap:round;stroke-linejoin:round;stroke-miterlimit:10;}
	.st935{fill:none;stroke:#0B3F5D;stroke-width:0.5;stroke-linecap:round;stroke-linejoin:round;stroke-miterlimit:10;}
	.st936{opacity:0.47;}
	.st937{opacity:0.5686;fill:#7E7F7F;}
	.st938{opacity:0.5686;fill:#D7D8D9;}
	.st939{opacity:0.57;}
	.st940{opacity:0.5686;fill:#FFFFFF;}
	.st941{opacity:0.5686;fill:url(#SVGID_928_);}
	.st942{opacity:0.8;fill:url(#SVGID_929_);stroke:url(#SVGID_930_);stroke-miterlimit:10;}
	.st943{opacity:0.8;fill:url(#SVGID_931_);}
	.st944{opacity:0.6;fill:url(#SVGID_932_);}
	.st945{fill:#0A3F5D;}
	.st946{opacity:0.15;fill:#FFFFFF;}
	.st947{opacity:0.3;fill:url(#SVGID_933_);}
	.st948{fill:url(#SVGID_934_);}
	.st949{fill:#82BCDF;stroke:#12405D;stroke-width:0.5;stroke-miterlimit:10;}
	.st950{fill:#9FCAE1;stroke:#12405D;stroke-width:0.5;stroke-linecap:round;stroke-linejoin:round;stroke-miterlimit:10;}
	.st951{fill:#8ABEDB;}
	.st952{fill:#D0E4A5;}
	.st953{fill:#ADD7EC;}
	.st954{fill:#BEDBEB;stroke:#12405D;stroke-width:0.5;stroke-miterlimit:10;}
	.st955{fill:#9FCC55;}
	.st956{fill:#00A4FF;}
	.st957{fill:#606060;}
	.st958{fill:#BEDBEB;}
	.st959{fill:#4B7DA7;}
	.st960{fill:none;stroke:#F1F5F8;stroke-width:0.3;}
	.st961{fill:none;stroke:#FFFFFF;stroke-width:0.3;}
	.st962{fill:none;stroke:#4198D3;stroke-width:1.3052;}
	.st963{fill:url(#SVGID_935_);}
	.st964{fill:url(#SVGID_936_);}
	.st965{fill:url(#SVGID_937_);}
	.st966{fill:none;stroke:url(#SVGID_938_);stroke-width:0.5;stroke-linecap:round;stroke-linejoin:round;stroke-miterlimit:10;}
	.st967{fill:url(#SVGID_939_);}
	.st968{fill:none;stroke:url(#SVGID_940_);stroke-width:0.5;stroke-linecap:round;stroke-linejoin:round;stroke-miterlimit:10;}
	.st969{fill:url(#SVGID_941_);}
	.st970{fill:url(#SVGID_942_);}
	.st971{fill:url(#SVGID_943_);}
	.st972{fill:#F2F9FD;}
	.st973{fill:url(#SVGID_944_);}
	.st974{clip-path:url(#SVGID_946_);}
	.st975{clip-path:url(#SVGID_950_);}
	.st976{clip-path:url(#SVGID_954_);}
	.st977{clip-path:url(#SVGID_958_);}
	.st978{fill:#F1F5F8;}
	.st979{clip-path:url(#SVGID_964_);}
	.st980{clip-path:url(#SVGID_968_);}
	.st981{fill:#4198D3;}
	.st982{clip-path:url(#SVGID_972_);}
	.st983{fill:url(#SVGID_975_);}
	.st984{fill:url(#SVGID_976_);}
	.st985{fill:#0E3849;}
	.st986{fill:#E8F2F9;}
	.st987{fill:#F3F8FC;}
	.st988{fill:#3F93CF;}
	.st989{fill:#ECF7FD;}
	.st990{fill:#247CAC;}
	.st991{fill:#14385E;}
	.st992{clip-path:url(#SVGID_980_);}
	.st993{clip-path:url(#SVGID_984_);}
	.st994{fill:#8FD4F5;}
	.st995{fill:url(#SVGID_987_);}
	.st996{fill:none;stroke:#133F5D;stroke-width:0.25;stroke-miterlimit:10;}
	.st997{fill:#A3CD5A;}
	.st998{fill:#BCE6FA;}
	.st999{fill:#3E94D0;}
	.st1000{clip-path:url(#SVGID_991_);}
	.st1001{fill:#CEE1AD;}
	.st1002{fill:url(#SVGID_994_);}
	.st1003{fill:#000102;}
	.st1004{fill:#98D2F2;}
	.st1005{fill:#1B80AC;}
	.st1006{fill:#0573A0;}
	.st1007{fill:#C9DDAF;}
	.st1008{fill:#91B35F;}
	.st1009{fill:none;stroke:#14385E;stroke-width:0.4;stroke-miterlimit:10;}
	.st1010{fill:#2291CC;}
	.st1011{fill:#C8E1F5;}
	.st1012{opacity:0.4;fill:#2291CC;}
	.st1013{fill:none;stroke:#ED1E25;stroke-miterlimit:10;}
	.st1014{fill:#ED1E25;}
	.st1015{opacity:0.8;fill:url(#SVGID_995_);stroke:url(#SVGID_996_);stroke-miterlimit:10;}
	.st1016{fill:url(#SVGID_997_);}
	.st1017{fill:none;stroke:url(#SVGID_998_);stroke-width:2;stroke-linecap:round;stroke-linejoin:round;stroke-miterlimit:10;}
	.st1018{fill:url(#SVGID_999_);}
	.st1019{fill:#F2F9FC;}
	.st1020{fill:#B9D9EE;}
	.st1021{fill:none;stroke:#FFFFFF;stroke-width:0.25;stroke-miterlimit:10;}
	.st1022{fill:#B9D9ED;}
	.st1023{opacity:0.7;}
	.st1024{opacity:0.1059;fill:#FFFFFF;}
	.st1025{opacity:0.0706;fill:#FFFFFF;}
	.st1026{opacity:0.1647;fill:#FFFFFF;}
	.st1027{opacity:0.08;}
	.st1028{fill:#809DB5;}
	.st1029{fill:#3D5567;}
	.st1030{fill:#ACD480;}
	.st1031{fill:#82BCDF;stroke:#12405D;stroke-width:0.5;stroke-linecap:round;stroke-linejoin:round;stroke-miterlimit:10;}
	.st1032{fill:#BEDBEB;stroke:#12405D;stroke-width:0.5;stroke-linecap:round;stroke-linejoin:round;stroke-miterlimit:10;}
	.st1033{fill:#12405D;}
	.st1034{fill:url(#SVGID_1000_);}
	.st1035{opacity:0.3;fill:url(#SVGID_1001_);}
	.st1036{fill:url(#SVGID_1002_);}
	.st1037{fill:url(#SVGID_1003_);}
	.st1038{fill:url(#SVGID_1004_);}
	.st1039{fill:url(#SVGID_1005_);}
	.st1040{opacity:0.8;fill:url(#SVGID_1006_);}
	.st1041{opacity:0.5;fill:url(#SVGID_1007_);}
	.st1042{opacity:0.7;fill:url(#SVGID_1008_);}
	.st1043{fill:url(#SVGID_1009_);}
	.st1044{fill:url(#SVGID_1010_);}
	.st1045{fill:none;stroke:url(#SVGID_1011_);stroke-width:2;stroke-linecap:round;stroke-linejoin:round;stroke-miterlimit:10;}
	.st1046{fill:none;stroke:url(#SVGID_1012_);stroke-width:2;stroke-linecap:round;stroke-linejoin:round;stroke-miterlimit:10;}
	.st1047{fill:url(#SVGID_1013_);}
	.st1048{fill:url(#SVGID_1014_);}
	.st1049{fill:url(#SVGID_1015_);}
	.st1050{fill:url(#SVGID_1016_);}
	.st1051{fill:url(#SVGID_1017_);}
	.st1052{fill:url(#SVGID_1018_);}
	.st1053{fill:url(#SVGID_1019_);}
	.st1054{fill:url(#SVGID_1020_);}
	.st1055{opacity:0.2;fill:url(#SVGID_1021_);}
	.st1056{opacity:0.5;fill:url(#SVGID_1022_);}
	.st1057{opacity:0.5;fill:url(#SVGID_1023_);}
	.st1058{fill:url(#SVGID_1024_);}
	.st1059{fill:url(#SVGID_1025_);}
	.st1060{fill:url(#SVGID_1026_);}
	.st1061{display:none;}
	.st1062{display:inline;opacity:0.5;fill:#CEE2A3;}
</style>
<g
   id="Layer_1"
   transform="matrix(1.0096774,0,0,1,-5.219355,0)">
	<g
   id="g8">
		<path
   class="st5"
   d="M 1366,35.65 V 36 H 0 V 35.52 C 35.53,31.25 308.01,0 676.94,0 1050.01,0 1334.33,31.95 1366,35.65 Z"
   id="path4"
   inkscape:connector-curvature="0"
   style="fill:#ffffff" />
		<rect
   y="35.52"
   class="st5"
   width="1392.1853"
   height="18"
   id="rect6"
   x="-26.185305"
   style="fill:#ffffff" />
	</g>
</g>
<g
   id="Layer_2"
   class="st1061">
</g>
</svg>